{
    "properties": [
        {
            "id": 1,
            "name": "Farm1",
            "city": "NCR",
            "description": "This is the test description for Farm 1",
            "long": 121.29942157397136,
            "lat": 14.816204575658844,
            "center": false
        },
        {
            "id": 2,
            "name": "Bohol Farm",
            "city": "Region 7",
            "description": "This is the test description for Farm2",
            "long":  124.27053531253286,
            "lat": 9.896370823618291,
            "center": true
        },
        {
            "id": 3,
            "name": "Farm3",
            "city": "NCR",
            "description": "This is the test description for Farm3",
            "long": 121.12135873542073,
            "lat": 14.592003648499885,
            "center": false
        }
    ]
}